*** Life<ConwayCell> 9x12 ***

Generation = 0, Population = 27.
.*....*....*
....*...*...
.*.**......*
..*....*....
....*..*****
......*.....
.....*.*.*.*
..*.........
..*....*.**.

Generation = 1, Population = 23.
............
..****......
..***.......
..*.*..*.*.*
......*****.
.....**....*
......*.....
......*..*..
............

Generation = 2, Population = 19.
...**.......
..*..*......
.*..........
..*.****.*..
.........*.*
.....*..***.
......**....
............
............

Generation = 3, Population = 24.
...**.......
..***.......
.****.......
.....**.*.*.
....*..*....
......*****.
......****..
............
............

Generation = 4, Population = 16.
..*.*.......
.*...*......
.*..........
..*..***....
..........*.
.....*....*.
......*...*.
.......**...
............

Generation = 5, Population = 14.
............
.**.........
.**..*......
......*.....
.....*......
.........***
......**.*..
.......*....
............

*** Life<ConwayCell> 10x12 ***

Generation = 0, Population = 19.
*.*.........
*.......*...
.......**...
**.*.*.*...*
*...........
............
*.....*.....
............
.....*......
.*...*.*....

Generation = 1, Population = 18.
.*..........
.*.....**...
**....***...
**....***...
**..........
............
............
............
......*.....
......*.....

Generation = 2, Population = 12.
............
.**...*.*...
..*......*..
..*...*.*...
**.....*....
............
............
............
............
............

*** Life<ConwayCell> 5x2 ***

Generation = 0, Population = 2.
..
*.
..
.*
..

Generation = 1, Population = 0.
..
..
..
..
..

Generation = 2, Population = 0.
..
..
..
..
..

*** Life<ConwayCell> 6x2 ***

Generation = 0, Population = 1.
..
..
..
*.
..
..

Generation = 1, Population = 0.
..
..
..
..
..
..

Generation = 2, Population = 0.
..
..
..
..
..
..

Generation = 3, Population = 0.
..
..
..
..
..
..

Generation = 4, Population = 0.
..
..
..
..
..
..

*** Life<ConwayCell> 8x5 ***

Generation = 0, Population = 1.
.....
.....
.....
.....
...*.
.....
.....
.....

Generation = 1, Population = 0.
.....
.....
.....
.....
.....
.....
.....
.....

Generation = 2, Population = 0.
.....
.....
.....
.....
.....
.....
.....
.....

*** Life<ConwayCell> 4x11 ***

Generation = 0, Population = 2.
..*........
...........
...........
..*........

Generation = 1, Population = 0.
...........
...........
...........
...........

Generation = 2, Population = 0.
...........
...........
...........
...........

*** Life<ConwayCell> 2x2 ***

Generation = 0, Population = 1.
*.
..

Generation = 1, Population = 0.
..
..

Generation = 2, Population = 0.
..
..

Generation = 3, Population = 0.
..
..

Generation = 4, Population = 0.
..
..

*** Life<ConwayCell> 7x11 ***

Generation = 0, Population = 17.
*.**...*..*
...........
.....*.....
..*****.*..
.....*...*.
...*.......
....*...*..

Generation = 1, Population = 9.
...........
...........
...*.**....
...*..*....
..*..**....
....*......
...........

*** Life<ConwayCell> 5x7 ***

Generation = 0, Population = 7.
.......
...*.*.
.......
**..*..
.*..*..

Generation = 1, Population = 5.
.......
.......
....*..
**.....
**.....

Generation = 2, Population = 4.
.......
.......
.......
**.....
**.....

Generation = 3, Population = 4.
.......
.......
.......
**.....
**.....

*** Life<ConwayCell> 3x8 ***

Generation = 0, Population = 2.
...**...
........
........

Generation = 1, Population = 0.
........
........
........

Generation = 2, Population = 0.
........
........
........
